﻿{
  "profiles": {
    "Hub": {
      "commandName": "Project",
      "dotnetRunMessages": "true",
      "launchBrowser": false,
      "launchUrl": "",
      "applicationUrl": "http://localhost:5000",
      "environmentVariables": {
        "ASPNETCORE_ENVIRONMENT": "Development"
      }
    }
  }
}
